FPGA/SHA256.sim/sim_1/behav/xsim/miner_tb.vcd
$date
   Tue Dec 17 01:08:49 2024
$end
$version
  2022.1
$end
$timescale
  1ps
$end
$scope module miner_tb $end
$var reg 640 ! message [639:0] $end
$var reg 256 " hashed [255:0] $end
$var reg 1 # clk $end
$var reg 1 $ rst $end
$var reg 1 % done $end
$scope module uut $end
$var wire 640 & block [639:0] $end
$var wire 1 ' clk $end
$var wire 1 ( rst $end
$var reg 256 " hashed [255:0] $end
$var reg 1 % done $end
$var reg 256 ) first_hash [255:0] $end
$var reg 256 * secnd_hash [255:0] $end
$var reg 1 + second_run_rst $end
$var reg 1 , done_first_hash $end
$var reg 1 - done_secnd_hash $end
$scope module first $end
$var wire 640 & message [639:0] $end
$var wire 1 ' clk $end
$var wire 1 ( rst $end
$var reg 256 ) hashed [255:0] $end
$var reg 1 , done $end
$var reg 1024 . padded [1023:0] $end
$scope module padder $end
$var reg 640 / message [639:0] $end
$var reg 1024 . padded [1023:0] $end
$upscope $end
$scope module loop $end
$var reg 1024 . padded [1023:0] $end
$var reg 1 0 clk $end
$var reg 1 1 rst $end
$var reg 256 ) hashed [255:0] $end
$var reg 1 , done $end
$var reg 256 2 initial_hashes [255:0] $end
$var reg 2048 3 k [2047:0] $end
$var reg 32 4 a [31:0] $end
$var reg 32 5 b [31:0] $end
$var reg 32 6 c [31:0] $end
$var reg 32 7 d [31:0] $end
$var reg 32 8 e [31:0] $end
$var reg 32 9 f [31:0] $end
$var reg 32 : g [31:0] $end
$var reg 32 ; h [31:0] $end
$var reg 32 < t1 [31:0] $end
$var reg 32 = t2 [31:0] $end
$var reg 32 > h1 [31:0] $end
$var reg 32 ? h2 [31:0] $end
$var reg 32 @ h3 [31:0] $end
$var reg 32 A h4 [31:0] $end
$var reg 32 B h5 [31:0] $end
$var reg 32 C h6 [31:0] $end
$var reg 32 D h7 [31:0] $end
$var reg 32 E h8 [31:0] $end
$var reg 7 F j [6:0] $end
$var reg 7 G i [6:0] $end
$var reg 32 H ch_efg [31:0] $end
$var reg 32 I maj_abc [31:0] $end
$var reg 32 J sum0_a [31:0] $end
$var reg 32 K sum1_e [31:0] $end
$var reg 32 L kj [31:0] $end
$var reg 32 M wj [31:0] $end
$scope function K $end
$var reg 32 N K [31:0] $end
$var reg 7 O x [6:0] $end
$upscope $end
$scope function W $end
$var reg 32 P W [31:0] $end
$var reg 7 Q x [6:0] $end
$var reg 7 R y [6:0] $end
$upscope $end
$scope function rho0 $end
$var reg 32 P rho0 [31:0] $end
$var reg 32 S x [31:0] $end
$upscope $end
$scope function rho1 $end
$var reg 32 P rho1 [31:0] $end
$var reg 32 S x [31:0] $end
$upscope $end
$scope function ch $end
$var reg 32 T ch [31:0] $end
$var reg 32 U x [31:0] $end
$var reg 32 V y [31:0] $end
$var reg 32 W z [31:0] $end
$upscope $end
$scope function maj $end
$var reg 32 X maj [31:0] $end
$var reg 32 Y x [31:0] $end
$var reg 32 Z y [31:0] $end
$var reg 32 [ z [31:0] $end
$upscope $end
$scope function sum0 $end
$var reg 32 \ sum0 [31:0] $end
$var reg 32 ] x [31:0] $end
$upscope $end
$scope function sum1 $end
$var reg 32 ^ sum1 [31:0] $end
$var reg 32 _ x [31:0] $end
$upscope $end
$upscope $end
$upscope $end
$scope module second $end
$var wire 256 ` message [255:0] $end
$var wire 1 ' clk $end
$var wire 1 a rst $end
$var reg 256 * hashed [255:0] $end
$var reg 1 - done $end
$var reg 512 b padded [511:0] $end
$scope module padder $end
$var reg 256 c message [255:0] $end
$var reg 512 b padded [511:0] $end
$upscope $end
$scope module loop $end
$var reg 512 b padded [511:0] $end
$var reg 1 d clk $end
$var reg 1 e rst $end
$var reg 256 * hashed [255:0] $end
$var reg 1 - done $end
$var reg 256 f initial_hashes [255:0] $end
$var reg 2048 g k [2047:0] $end
$var reg 32 h a [31:0] $end
$var reg 32 i b [31:0] $end
$var reg 32 j c [31:0] $end
$var reg 32 k d [31:0] $end
$var reg 32 l e [31:0] $end
$var reg 32 m f [31:0] $end
$var reg 32 n g [31:0] $end
$var reg 32 o h [31:0] $end
$var reg 32 p t1 [31:0] $end
$var reg 32 q t2 [31:0] $end
$var reg 32 r h1 [31:0] $end
$var reg 32 s h2 [31:0] $end
$var reg 32 t h3 [31:0] $end
$var reg 32 u h4 [31:0] $end
$var reg 32 v h5 [31:0] $end
$var reg 32 w h6 [31:0] $end
$var reg 32 x h7 [31:0] $end
$var reg 32 y h8 [31:0] $end
$var reg 7 z j [6:0] $end
$var reg 7 { i [6:0] $end
$var reg 32 | ch_efg [31:0] $end
$var reg 32 } maj_abc [31:0] $end
$var reg 32 ~ sum0_a [31:0] $end
$var reg 32 !! sum1_e [31:0] $end
$var reg 32 "! kj [31:0] $end
$var reg 32 #! wj [31:0] $end
$scope function K $end
$var reg 32 $! K [31:0] $end
$var reg 7 %! x [6:0] $end
$upscope $end
$scope function W $end
$var reg 32 P W [31:0] $end
$var reg 7 Q x [6:0] $end
$var reg 7 R y [6:0] $end
$upscope $end
$scope function rho0 $end
$var reg 32 P rho0 [31:0] $end
$var reg 32 S x [31:0] $end
$upscope $end
$scope function rho1 $end
$var reg 32 P rho1 [31:0] $end
$var reg 32 S x [31:0] $end
$upscope $end
$scope function ch $end
$var reg 32 &! ch [31:0] $end
$var reg 32 '! x [31:0] $end
$var reg 32 (! y [31:0] $end
$var reg 32 )! z [31:0] $end
$upscope $end
$scope function maj $end
$var reg 32 *! maj [31:0] $end
$var reg 32 +! x [31:0] $end
$var reg 32 ,! y [31:0] $end
$var reg 32 -! z [31:0] $end
$upscope $end
$scope function sum0 $end
$var reg 32 .! sum0 [31:0] $end
$var reg 32 /! x [31:0] $end
$upscope $end
$scope function sum1 $end
$var reg 32 0! sum1 [31:0] $end
$var reg 32 1! x [31:0] $end
$upscope $end
$upscope $end
$upscope $end
$upscope $end
$upscope $end
$enddefinitions $end
#0
$dumpvars
b100000000000000000000000000000000000000000000000000000000000000000000000000000000000000000000000000000000000000000000000000000000000000000000000000000000000000000000000000000000000000000000000000000000000000000000000000000000000000000000000000000000000000000000000000000000000000000011101110100011111011011111110101111010011110110001001010110010011110101100011100101100001111100110011101110110100011110110000101111111110010000001101111000011100010001000101001010001001100100011101010011111101110001010101001001011000111100101111001001010001010011010101101011111010010011111111111111111000000000001110100011101101011000010101101111100 !
b100010001000 !!
bx "
bx "!
0#
b11101110111 #!
1$
bx $!
x%
bx %!
b100000000000000000000000000000000000000000000000000000000000000000000000000000000000000000000000000000000000000000000000000000000000000000000000000000000000000000000000000000000000000000000000000000000000000000000000000000000000000000000000000000000000000000000000000000000000000000011101110100011111011011111110101111010011110110001001010110010011110101100011100101100001111100110011101110110100011110110000101111111110010000001101111000011100010001000101001010001001100100011101010011111101110001010101001001011000111100101111001001010001010011010101101011111010010011111111111111111000000000001110100011101101011000010101101111100 &
b100010001000 &!
0'
bx '!
1(
bx (!
b110101000001001111001100110011110111011011001111010111010000101001111000110111011110011011100101010010101001111111101010011101001010001000011100101001001111111100110110000010101101000100011000001111110000011110110011010101101011011111000001100110100011001 )
bx )!
bx *
b100010001000 *!
x+
bx +!
x,
bx ,!
x-
bx -!
b100000000000000000000000000000000000000000000000000000000000000000000000000000000000000000000000000000000000000000000000000000000000000000000000000000000000000000000000000000000000000000000000000000000000000000000000000000000000000000000000000000000000000000000000000000000000000000011101110100011111011011111110101111010011110110001001010110010011110101100011100101100001111100110011101110110100011110110000101111111110010000001101111000011100010001000101001010001001100100011101010011111101110001010101001001011000111100101111001001010001010011010101101011111010010011111111111111111000000000001110100011101101011000010101101111100100000000000000000000000000000000000000000000000000000000000000000000000000000000000000000000000000000000000000000000000000000000000000000000000000000000000000000000000000000000000000000000000000000000000000000000000000000000000000000000000000000000000000000000000000000000000000000000000000000000000000000000000000000000000000000000000000000000000000000000000000000000000001010000000 .
b100010001000 .!
b100000000000000000000000000000000000000000000000000000000000000000000000000000000000000000000000000000000000000000000000000000000000000000000000000000000000000000000000000000000000000000000000000000000000000000000000000000000000000000000000000000000000000000000000000000000000000000011101110100011111011011111110101111010011110110001001010110010011110101100011100101100001111100110011101110110100011110110000101111111110010000001101111000011100010001000101001010001001100100011101010011111101110001010101001001011000111100101111001001010001010011010101101011111010010011111111111111111000000000001110100011101101011000010101101111100 /
bx /!
00
b100010001000 0!
11
bx 1!
b110101000001001111001100110011110111011011001111010111010000101001111000110111011110011011100101010010101001111111101010011101001010001000011100101001001111111100110110000010101101000100011000001111110000011110110011010101101011011111000001100110100011001 2
b1000010100010100010111110011000011100010011011101000100100100011011010111000000111110111100111111101001101101011101101110100101001110010101011011000010010110110101100111110001000100011111000110010010001111111000001010100100101010110001110001011110110101011101100000000111101010101001100000010010100000110101101100000001001001000011000110000101101111100101010100001100011111011100001101110010101111100101110101110100100000001101111010110001111111101001101111011100000001101010011111000001100110111111000101110100111001001001101101101001110000011110111110111110010001111000011000001111110000011001110111000110001001000000110010100001110011000010110111101001001011000110111101001010011101001000010010101010010111001011000010101001110111000111011011111001100010001101101010011000001111100101000101010010101010000011000111000110011011011011000000000011001001111100100010111111010110010111111111000111110001101110000000001011111100111101010110100111100100010100011100000110110010100110001101010001000101000010100100101001011001110010011110110111000010101000010100101110000110110010000100111000010011010010110001101101111111000101001100111000000011010001001101100101000010100111001101010100011101100110101000001010101110111000000111000010110010010010111010010010011100100010110010000101101000101011111111101000101000011010100000011010011001100100101111000010010010111000101101110000110001110110110001010001101000111101000110010010111010000001100111010110100110010000011000100100111101000000111000110101100001010001000001101010101000000111000000011001101001001100000100010110000111100011011101101100000010000010011101001000011101110100110000110100101100001011110010110101001110010001110000001100101100110100111011011000101010100100101001011011100111001100101001001111011010000010111001101111111100110111010010001111100000101110111001111000101001010110001101101111100001001100100001111000000101001000110011000111000000100000100010010000101111101111111111111010101001000101000001101100111010111011111011111001101000111111011111000110011100010111100011110010 3
bx 4
bx 5
bx 6
bx 7
bx 8
bx 9
bx :
bx ;
bx <
bx =
b1101010000010011110011001100111 >
b10111011011001111010111010000101 ?
b111100011011101111001101110010 @
b10100101010011111111010100111010 A
b1010001000011100101001001111111 B
b10011011000001010110100010001100 C
b11111100000111101100110101011 D
b1011011111000001100110100011001 E
b0x F
b0 G
b100010001000 H
b100010001000 I
b100010001000 J
b100010001000 K
bx L
b11101110111 M
bx N
b0x O
b0 P
b0 Q
b0 R
b0 S
b100010001000 T
bx U
bx V
bx W
b100010001000 X
bx Y
bx Z
bx [
b100010001000 \
bx ]
b100010001000 ^
bx _
b110101000001001111001100110011110111011011001111010111010000101001111000110111011110011011100101010010101001111111101010011101001010001000011100101001001111111100110110000010101101000100011000001111110000011110110011010101101011011111000001100110100011001 `
xa
b1101010000010011110011001100111101110110110011110101110100001010011110001101110111100110111001010100101010011111111010100111010010100010000111001010010011111111001101100000101011010001000110000011111100000111101100110101011010110111110000011001101000110011000000000000000000000000000000000000000000000000000000000000000000000000000000000000000000000000000000000000000000000000000000000000000000000000000000000000000000000000000000000000000000000000000000000000000000000000000000000000000000000000000000100000000 b
b110101000001001111001100110011110111011011001111010111010000101001111000110111011110011011100101010010101001111111101010011101001010001000011100101001001111111100110110000010101101000100011000001111110000011110110011010101101011011111000001100110100011001 c
0d
xe
b110101000001001111001100110011110111011011001111010111010000101001111000110111011110011011100101010010101001111111101010011101001010001000011100101001001111111100110110000010101101000100011000001111110000011110110011010101101011011111000001100110100011001 f
b1000010100010100010111110011000011100010011011101000100100100011011010111000000111110111100111111101001101101011101101110100101001110010101011011000010010110110101100111110001000100011111000110010010001111111000001010100100101010110001110001011110110101011101100000000111101010101001100000010010100000110101101100000001001001000011000110000101101111100101010100001100011111011100001101110010101111100101110101110100100000001101111010110001111111101001101111011100000001101010011111000001100110111111000101110100111001001001101101101001110000011110111110111110010001111000011000001111110000011001110111000110001001000000110010100001110011000010110111101001001011000110111101001010011101001000010010101010010111001011000010101001110111000111011011111001100010001101101010011000001111100101000101010010101010000011000111000110011011011011000000000011001001111100100010111111010110010111111111000111110001101110000000001011111100111101010110100111100100010100011100000110110010100110001101010001000101000010100100101001011001110010011110110111000010101000010100101110000110110010000100111000010011010010110001101101111111000101001100111000000011010001001101100101000010100111001101010100011101100110101000001010101110111000000111000010110010010010111010010010011100100010110010000101101000101011111111101000101000011010100000011010011001100100101111000010010010111000101101110000110001110110110001010001101000111101000110010010111010000001100111010110100110010000011000100100111101000000111000110101100001010001000001101010101000000111000000011001101001001100000100010110000111100011011101101100000010000010011101001000011101110100110000110100101100001011110010110101001110010001110000001100101100110100111011011000101010100100101001011011100111001100101001001111011010000010111001101111111100110111010010001111100000101110111001111000101001010110001101101111100001001100100001111000000101001000110011000111000000100000100010010000101111101111111111111010101001000101000001101100111010111011111011111001101000111111011111000110011100010111100011110010 g
bx h
bx i
bx j
bx k
bx l
bx m
bx n
bx o
bx p
bx q
bx r
bx s
bx t
bx u
bx v
bx w
bx x
bx y
bx z
bx {
b100010001000 |
b100010001000 }
b100010001000 ~
$end
#5000
b100010001000 !!
b1100111001101111000000101101110101011110110011000001100011111100011000110100000000101100110110111111101010010000011100101000100111010111101010100111110100101011100101111001101101110001111001000010110101110011001111011101101100111111001100000100101101010 "
bx "!
1#
b11101110111 #!
0$
bx $!
b0x %!
b100010001000 &!
1'
bx '!
0(
bx (!
bx )!
b110101000001001111001100110011110111011011001111010111010000101001111000110111011110011011100101010010101001111111101010011101001010001000011100101001001111111100110110000010101101000100011000001111110000011110110011010101101011011111000001100110100011001 *
b100010001000 *!
1+
bx +!
bx ,!
bx -!
b100010001000 .!
bx /!
10
b100010001000 0!
01
bx 1!
b1101010000010011110011001100111 4
b10111011011001111010111010000101 5
b111100011011101111001101110010 6
b10100101010011111111010100111010 7
b1010001000011100101001001111111 8
b10011011000001010110100010001100 9
b11111100000111101100110101011 :
b1011011111000001100110100011001 ;
b0 F
b11111100001011100100110001100 H
b111010011011111110011001100111 I
b11001110001000001011010001111110 J
b110101100001110010011100101011 K
b1000010100010100010111110011000 L
b1000000000000000000000000 M
b1000010100010100010111110011000 N
b0 O
b11111100001011100100110001100 T
b1010001000011100101001001111111 U
b10011011000001010110100010001100 V
b11111100000111101100110101011 W
b111010011011111110011001100111 X
b1101010000010011110011001100111 Y
b10111011011001111010111010000101 Z
b111100011011101111001101110010 [
b11001110001000001011010001111110 \
b1101010000010011110011001100111 ]
b110101100001110010011100101011 ^
b1010001000011100101001001111111 _
1a
1d
1e
b1101010000010011110011001100111 r
b10111011011001111010111010000101 s
b111100011011101111001101110010 t
b10100101010011111111010100111010 u
b1010001000011100101001001111111 v
b10011011000001010110100010001100 w
b11111100000111101100110101011 x
b1011011111000001100110100011001 y
b0x z
b0 {
b100010001000 |
b100010001000 }
b100010001000 ~
#10000
0#
0'
00
bx <
bx =
0d
bx p
bx q
#15000
1#
1'
1+
10
bx 4
b1101010000010011110011001100111 5
b10111011011001111010111010000101 6
b111100011011101111001101110010 7
bx 8
b1010001000011100101001001111111 9
b10011011000001010110100010001100 :
b11111100000111101100110101011 ;
b1 F
b100010001000 H
b100010001000 I
b100010001000 J
b100010001000 K
b1110001001101110100010010010001 L
b0 M
b1110001001101110100010010010001 N
b1 O
b100010001000 T
bx U
b1010001000011100101001001111111 V
b10011011000001010110100010001100 W
b100010001000 X
bx Y
b1101010000010011110011001100111 Z
b10111011011001111010111010000101 [
b100010001000 \
bx ]
b100010001000 ^
bx _
1d
b1101010000010011110011001100111 r
b10111011011001111010111010000101 s
b111100011011101111001101110010 t
b10100101010011111111010100111010 u
b1010001000011100101001001111111 v
b10011011000001010110100010001100 w
b11111100000111101100110101011 x
b1011011111000001100110100011001 y
b0x z
b0 {
#20000
0#
0'
00
bx <
bx =
0d
bx p
bx q
#25000
1#
1'
1+
10
bx 4
bx 5
b1101010000010011110011001100111 6
b10111011011001111010111010000101 7
bx 8
bx 9
b1010001000011100101001001111111 :
b10011011000001010110100010001100 ;
b10 F
b100010001000 H
b100010001000 I
b100010001000 J
b100010001000 K
b10110101110000001111101111001111 L
b0 M
b10110101110000001111101111001111 N
b10 O
b100010001000 T
bx U
bx V
b1010001000011100101001001111111 W
b100010001000 X
bx Y
bx Z
b1101010000010011110011001100111 [
b100010001000 \
bx ]
b100010001000 ^
bx _
1d
b1101010000010011110011001100111 r
b10111011011001111010111010000101 s
b111100011011101111001101110010 t
b10100101010011111111010100111010 u
b1010001000011100101001001111111 v
b10011011000001010110100010001100 w
b11111100000111101100110101011 x
b1011011111000001100110100011001 y
b0x z
b0 {
#30000
0#
0'
00
bx <
bx =
0d
bx p
bx q
#35000
1#
1'
1+
10
bx 4
bx 5
bx 6
b1101010000010011110011001100111 7
bx 8
bx 9
bx :
b1010001000011100101001001111111 ;
b11 F
b100010001000 H
b100010001000 I
b100010001000 J
b100010001000 K
b11101001101101011101101110100101 L
b0 M
b11101001101101011101101110100101 N
b11 O
b100010001000 T
bx U
bx V
bx W
b100010001000 X
bx Y
bx Z
bx [
b100010001000 \
bx ]
b100010001000 ^
bx _
1d
b1101010000010011110011001100111 r
b10111011011001111010111010000101 s
b111100011011101111001101110010 t
b10100101010011111111010100111010 u
b1010001000011100101001001111111 v
b10011011000001010110100010001100 w
b11111100000111101100110101011 x
b1011011111000001100110100011001 y
b0x z
b0 {
#40000
0#
0'
00
bx <
bx =
0d
bx p
bx q
#45000
1#
1'
1+
10
bx 4
bx 5
bx 6
bx 7
bx 8
bx 9
bx :
bx ;
b100 F
b100010001000 H
b100010001000 I
b100010001000 J
b100010001000 K
b111001010101101100001001011011 L
b0 M
b111001010101101100001001011011 N
b100 O
b100010001000 T
bx U
bx V
bx W
b100010001000 X
bx Y
bx Z
bx [
b100010001000 \
bx ]
b100010001000 ^
bx _
1d
b1101010000010011110011001100111 r
b10111011011001111010111010000101 s
b111100011011101111001101110010 t
b10100101010011111111010100111010 u
b1010001000011100101001001111111 v
b10011011000001010110100010001100 w
b11111100000111101100110101011 x
b1011011111000001100110100011001 y
b0x z
b0 {
#50000
0#
0'
00
bx <
bx =
0d
bx p
bx q
#55000
1#
1'
1+
10
bx 4
bx 5
bx 6
bx 7
bx 8
bx 9
bx :
bx ;
b101 F
b100010001000 H
b100010001000 I
b100010001000 J
b100010001000 K
b1011001111100010001000111110001 L
b0 M
b1011001111100010001000111110001 N
b101 O
b100010001000 T
bx U
bx V
bx W
b100010001000 X
bx Y
bx Z
bx [
b100010001000 \
bx ]
b100010001000 ^
bx _
1d
b1101010000010011110011001100111 r
b10111011011001111010111010000101 s
b111100011011101111001101110010 t
b10100101010011111111010100111010 u
b1010001000011100101001001111111 v
b10011011000001010110100010001100 w
b11111100000111101100110101011 x
b1011011111000001100110100011001 y
b0x z
b0 {
#60000
0#
0'
00
bx <
bx =
0d
bx p
bx q
#65000
1#
1'
1+
10
bx 4
bx 5
bx 6
bx 7
bx 8
bx 9
bx :
bx ;
b110 F
b100010001000 H
b100010001000 I
b100010001000 J
b100010001000 K
b10010010001111111000001010100100 L
b0 M
b10010010001111111000001010100100 N
b110 O
b100010001000 T
bx U
bx V
bx W
b100010001000 X
bx Y
bx Z
bx [
b100010001000 \
bx ]
b100010001000 ^
bx _
1d
b1101010000010011110011001100111 r
b10111011011001111010111010000101 s
b111100011011101111001101110010 t
b10100101010011111111010100111010 u
b1010001000011100101001001111111 v
b10011011000001010110100010001100 w
b11111100000111101100110101011 x
b1011011111000001100110100011001 y
b0x z
b0 {
#70000
0#
0'
00
bx <
bx =
0d
bx p
bx q
#75000
1#
1'
1+
10
bx 4
bx 5
bx 6
bx 7
bx 8
bx 9
bx :
bx ;
b111 F
b100010001000 H
b100010001000 I
b100010001000 J
b100010001000 K
b10101011000111000101111011010101 L
b0 M
b10101011000111000101111011010101 N
b111 O
b100010001000 T
bx U
bx V
bx W
b100010001000 X
bx Y
bx Z
bx [
b100010001000 \
bx ]
b100010001000 ^
bx _
1d
b1101010000010011110011001100111 r
b10111011011001111010111010000101 s
b111100011011101111001101110010 t
b10100101010011111111010100111010 u
b1010001000011100101001001111111 v
b10011011000001010110100010001100 w
b11111100000111101100110101011 x
b1011011111000001100110100011001 y
b0x z
b0 {
#80000
0#
0'
00
bx <
bx =
0d
bx p
bx q
#85000
1#
1'
1+
10
bx 4
bx 5
bx 6
bx 7
bx 8
bx 9
bx :
bx ;
b1000 F
b100010001000 H
b100010001000 I
b100010001000 J
b100010001000 K
b11011000000001111010101010011000 L
b0 M
b11011000000001111010101010011000 N
b1000 O
b100010001000 T
bx U
bx V
bx W
b100010001000 X
bx Y
bx Z
bx [
b100010001000 \
bx ]
b100010001000 ^
bx _
1d
b1101010000010011110011001100111 r
b10111011011001111010111010000101 s
b111100011011101111001101110010 t
b10100101010011111111010100111010 u
b1010001000011100101001001111111 v
b10011011000001010110100010001100 w
b11111100000111101100110101011 x
b1011011111000001100110100011001 y
b0x z
b0 {
#90000
0#
0'
00
bx <
bx =
0d
bx p
bx q
#95000
1#
1'
1+
10
bx 4
bx 5
bx 6
bx 7
bx 8
bx 9
bx :
bx ;
b1001 F
b100010001000 H
b100010001000 I
b100010001000 J
b100010001000 K
b10010100000110101101100000001 L
b111011101000111110110111111101 M
b10010100000110101101100000001 N
b1001 O
b100010001000 T
bx U
bx V
bx W
b100010001000 X
bx Y
bx Z
bx [
b100010001000 \
bx ]
b100010001000 ^
bx _
1d
b1101010000010011110011001100111 r
b10111011011001111010111010000101 s
b111100011011101111001101110010 t
b10100101010011111111010100111010 u
b1010001000011100101001001111111 v
b10011011000001010110100010001100 w
b11111100000111101100110101011 x
b1011011111000001100110100011001 y
b0x z
b0 {
#100000
0#
0'
00
bx <
bx =
0d
bx p
bx q
#105000
1#
1'
1+
10
bx 4
bx 5
bx 6
bx 7
bx 8
bx 9
bx :
bx ;
b1010 F
b100010001000 H
b100010001000 I
b100010001000 J
b100010001000 K
b100100001100011000010110111110 L
b1111010011110110001001010110010 M
b100100001100011000010110111110 N
b1010 O
b100010001000 T
bx U
bx V
bx W
b100010001000 X
bx Y
bx Z
bx [
b100010001000 \
bx ]
b100010001000 ^
bx _
1d
b1101010000010011110011001100111 r
b10111011011001111010111010000101 s
b111100011011101111001101110010 t
b10100101010011111111010100111010 u
b1010001000011100101001001111111 v
b10011011000001010110100010001100 w
b11111100000111101100110101011 x
b1011011111000001100110100011001 y
b0x z
b0 {
#110000
0#
0'
00
bx <
bx =
0d
bx p
bx q
#115000
1#
1'
1+
10
bx 4
bx 5
bx 6
bx 7
bx 8
bx 9
bx :
bx ;
b1011 F
b100010001000 H
b100010001000 I
b100010001000 J
b100010001000 K
b1010101000011000111110111000011 L
b1111010110001110010110000111110 M
b1010101000011000111110111000011 N
b1011 O
b100010001000 T
bx U
bx V
bx W
b100010001000 X
bx Y
bx Z
bx [
b100010001000 \
bx ]
b100010001000 ^
bx _
1d
b1101010000010011110011001100111 r
b10111011011001111010111010000101 s
b111100011011101111001101110010 t
b10100101010011111111010100111010 u
b1010001000011100101001001111111 v
b10011011000001010110100010001100 w
b11111100000111101100110101011 x
b1011011111000001100110100011001 y
b0x z
b0 {
#120000
0#
0'
00
bx <
bx =
0d
bx p
bx q
#125000
1#
1'
1+
10
bx 4
bx 5
bx 6
bx 7
bx 8
bx 9
bx :
bx ;
b1100 F
b100010001000 H
b100010001000 I
b100010001000 J
b100010001000 K
b1110010101111100101110101110100 L
b1100111011101101000111101100001 M
b1110010101111100101110101110100 N
b1100 O
b100010001000 T
bx U
bx V
bx W
b100010001000 X
bx Y
bx Z
bx [
b100010001000 \
bx ]
b100010001000 ^
bx _
1d
b1101010000010011110011001100111 r
b10111011011001111010111010000101 s
b111100011011101111001101110010 t
b10100101010011111111010100111010 u
b1010001000011100101001001111111 v
b10011011000001010110100010001100 w
b11111100000111101100110101011 x
b1011011111000001100110100011001 y
b0x z
b0 {
#130000
0#
0'
00
bx <
bx =
0d
bx p
bx q
#135000
1#
1'
1+
10
bx 4
bx 5
bx 6
bx 7
bx 8
bx 9
bx :
bx ;
b1101 F
b100010001000 H
b100010001000 I
b100010001000 J
b100010001000 K
b10000000110111101011000111111110 L
b1111111110010000001101111000011 M
b10000000110111101011000111111110 N
b1101 O
b100010001000 T
bx U
bx V
bx W
b100010001000 X
bx Y
bx Z
bx [
b100010001000 \
bx ]
b100010001000 ^
bx _
1d
b1101010000010011110011001100111 r
b10111011011001111010111010000101 s
b111100011011101111001101110010 t
b10100101010011111111010100111010 u
b1010001000011100101001001111111 v
b10011011000001010110100010001100 w
b11111100000111101100110101011 x
b1011011111000001100110100011001 y
b0x z
b0 {
#140000
0#
0'
00
bx <
bx =
0d
bx p
bx q
#145000
1#
1'
1+
10
bx 4
bx 5
bx 6
bx 7
bx 8
bx 9
bx :
bx ;
b1110 F
b100010001000 H
b100010001000 I
b100010001000 J
b100010001000 K
b10011011110111000000011010100111 L
b10001000100010100101000100110010 M
b10011011110111000000011010100111 N
b1110 O
b100010001000 T
bx U
bx V
bx W
b100010001000 X
bx Y
bx Z
bx [
b100010001000 \
bx ]
b100010001000 ^
bx _
1d
b1101010000010011110011001100111 r
b10111011011001111010111010000101 s
b111100011011101111001101110010 t
b10100101010011111111010100111010 u
b1010001000011100101001001111111 v
b10011011000001010110100010001100 w
b11111100000111101100110101011 x
b1011011111000001100110100011001 y
b0x z
b0 {
#150000
0#
0'
00
bx <
bx =
0d
bx p
bx q
#155000
1#
1'
1+
10
bx 4
bx 5
bx 6
bx 7
bx 8
bx 9
bx :
bx ;
b1111 F
b100010001000 H
b100010001000 I
b100010001000 J
b100010001000 K
b11000001100110111111000101110100 L
b111010100111111011100010101010 M
b11000001100110111111000101110100 N
b1111 O
b100010001000 T
bx U
bx V
bx W
b100010001000 X
bx Y
bx Z
bx [
b100010001000 \
bx ]
b100010001000 ^
bx _
1d
b1101010000010011110011001100111 r
b10111011011001111010111010000101 s
b111100011011101111001101110010 t
b10100101010011111111010100111010 u
b1010001000011100101001001111111 v
b10011011000001010110100010001100 w
b11111100000111101100110101011 x
b1011011111000001100110100011001 y
b0x z
b0 {
#160000
0#
0'
00
bx <
bx =
0d
bx p
bx q
#165000
1#
1'
1+
10
bx 4
bx 5
bx 6
bx 7
bx 8
bx 9
bx :
bx ;
b10000 F
b100010001000 H
b100010001000 I
b100010001000 J
b100010001000 K
b11100100100110110110100111000001 L
b10011111010000010010010110111101 M
b11100100100110110110100111000001 N
b10000 O
b100010001000 T
bx U
bx V
bx W
b100010001000 X
bx Y
bx Z
bx [
b100010001000 \
bx ]
b100010001000 ^
bx _
1d
b1101010000010011110011001100111 r
b10111011011001111010111010000101 s
b111100011011101111001101110010 t
b10100101010011111111010100111010 u
b1010001000011100101001001111111 v
b10011011000001010110100010001100 w
b11111100000111101100110101011 x
b1011011111000001100110100011001 y
b0x z
b0 {
#170000
0#
0'
00
bx <
bx =
0d
bx p
bx q
#175000
1#
1'
1+
10
bx 4
bx 5
bx 6
bx 7
bx 8
bx 9
bx :
bx ;
b10001 F
b100010001000 H
b100010001000 I
b100010001000 J
b100010001000 K
b11101111101111100100011110000110 L
b10100101110010100001000010100100 M
b11101111101111100100011110000110 N
b10001 O
b100010001000 T
bx U
bx V
bx W
b100010001000 X
bx Y
bx Z
bx [
b100010001000 \
bx ]
b100010001000 ^
bx _
1d
b1101010000010011110011001100111 r
b10111011011001111010111010000101 s
b111100011011101111001101110010 t
b10100101010011111111010100111010 u
b1010001000011100101001001111111 v
b10011011000001010110100010001100 w
b11111100000111101100110101011 x
b1011011111000001100110100011001 y
b0x z
b0 {
#180000
0#
0'
00
bx <
bx =
0d
bx p
bx q
#185000
1#
1'
1+
10
bx 4
bx 5
bx 6
bx 7
bx 8
bx 9
bx :
bx ;
b10010 F
b100010001000 H
b100010001000 I
b100010001000 J
b100010001000 K
b1111110000011001110111000110 L
b110001000101011101100000111111 M
b1111110000011001110111000110 N
b10010 O
b100010001000 T
bx U
bx V
bx W
b100010001000 X
bx Y
bx Z
bx [
b100010001000 \
bx ]
b100010001000 ^
bx _
1d
b1101010000010011110011001100111 r
b10111011011001111010111010000101 s
b111100011011101111001101110010 t
b10100101010011111111010100111010 u
b1010001000011100101001001111111 v
b10011011000001010110100010001100 w
b11111100000111101100110101011 x
b1011011111000001100110100011001 y
b0x z
b0 {
#190000
0#
0'
00
bx <
bx =
0d
bx p
bx q
#195000
1#
1'
1+
10
bx 4
bx 5
bx 6
bx 7
bx 8
bx 9
bx :
bx ;
b10011 F
b100010001000 H
b100010001000 I
b100010001000 J
b100010001000 K
b100100000011001010000111001100 L
b10110001111001100100010000111001 M
b100100000011001010000111001100 N
b10011 O
b100010001000 T
bx U
bx V
bx W
b100010001000 X
bx Y
bx Z
bx [
b100010001000 \
bx ]
b100010001000 ^
bx _
1d
b1101010000010011110011001100111 r
b10111011011001111010111010000101 s
b111100011011101111001101110010 t
b10100101010011111111010100111010 u
b1010001000011100101001001111111 v
b10011011000001010110100010001100 w
b11111100000111101100110101011 x
b1011011111000001100110100011001 y
b0x z
b0 {
#200000
0#
0'
00
bx <
bx =
0d
bx p
bx q
#205000
1#
1'
1+
10
bx 4
bx 5
bx 6
bx 7
bx 8
bx 9
bx :
bx ;
b10100 F
b100010001000 H
b100010001000 I
b100010001000 J
b100010001000 K
b101101111010010010110001101111 L
b11010110110111000101011110100001 M
b101101111010010010110001101111 N
b10100 O
b100010001000 T
bx U
bx V
bx W
b100010001000 X
bx Y
bx Z
bx [
b100010001000 \
bx ]
b100010001000 ^
bx _
1d
b1101010000010011110011001100111 r
b10111011011001111010111010000101 s
b111100011011101111001101110010 t
b10100101010011111111010100111010 u
b1010001000011100101001001111111 v
b10011011000001010110100010001100 w
b11111100000111101100110101011 x
b1011011111000001100110100011001 y
b0x z
b0 {
